…
``` r
data("flights")
flights <- copy_to(sc, flights, "spark_flights")
```

``` r
flights %>%
  filter(arr_delay < 100) %>%
  select(distance) %>%
  db_histogram()
```

    ## # A tibble: 30 × 2
    ##    count bin_values
    ##    <dbl>      <dbl>
    ## 1  35440    80.0000
    ## 2  20079   243.4333
    ## 3  40216   406.8667
    ## 4  28191   570.3000
    ## 5  32569   733.7333
    ## 6  36607   897.1667
    ## 7  33329  1060.6000
    ## 8   3161  1224.0333
    ## 9  16389  1387.4667
    ## 10 14810  1550.9000
    ## # ... with 20 more rows
…
``` r
flights %>%
  filter(arr_delay < 100) %>%
  select(arr_delay, dep_delay) %>%
  db_raster()
```

    ## Source: local data frame [11,836 x 3]
    ## Groups: res_x [176]
    ## 
    ##    res_x res_y     n
    ##    <dbl> <dbl> <dbl>
    ## 1    172    68    41
    ## 2    117    58   687
    ## 3    133    62   418
    ## 4    162    78    49
    ## 5    144    51   130
    ## 6    125    61   537
    ## 7    144    57   359
    ## 8    146    58   337
    ## 9    123    62   414
    ## 10   136    55   447
    ## # ... with 11,826 more rows
…
